{
    "KPackageStructure": "Plasma/Applet",
    "KPlugin": {
        "Authors": [
            {
                "Email": "kde@privat.broulik.de",
                "Name": "Kai Uwe Broulik",
                "Name[ar]": "Kai Uwe Broulik",
                "Name[ast]": "Kai Uwe Broulik",
                "Name[az]": "Kai Uwe Broulik",
                "Name[be]": "Kai Uwe Broulik",
                "Name[bg]": "Kai Uwe Broulik",
                "Name[ca@valencia]": "Kai Uwe Broulik",
                "Name[ca]": "Kai Uwe Broulik",
                "Name[cs]": "Kai Uwe Broulik",
                "Name[da]": "Kai Uwe Broulik",
                "Name[de]": "Kai Uwe Broulik",
                "Name[en_GB]": "Kai Uwe Broulik",
                "Name[eo]": "Kai Uwe Broulik",
                "Name[es]": "Kai Uwe Broulik",
                "Name[et]": "Kai Uwe Broulik",
                "Name[eu]": "Kai Uwe Broulik",
                "Name[fi]": "Kai Uwe Broulik",
                "Name[fr]": "Kai Uwe Broulik",
                "Name[gl]": "Kai Uwe Broulik",
                "Name[he]": "קאי אווה ברוליק",
                "Name[hi]": "काई उवे ब्रोलिक",
                "Name[hu]": "Kai Uwe Broulik",
                "Name[ia]": "Kai Uwe Broulik",
                "Name[id]": "Kai Uwe Broulik",
                "Name[is]": "Kai Uwe Broulik",
                "Name[it]": "Kai Uwe Broulik",
                "Name[ja]": "Kai Uwe Broulik",
                "Name[ka]": "კაი უვე ბროულიკი",
                "Name[ko]": "Kai Uwe Broulik",
                "Name[lt]": "Kai Uwe Broulik",
                "Name[nl]": "Kai Uwe Broulik",
                "Name[nn]": "Kai Uwe Broulik",
                "Name[pl]": "Kai Uwe Broulik",
                "Name[pt]": "Kai Uwe Broulik",
                "Name[pt_BR]": "Kai Uwe Broulik",
                "Name[ro]": "Kai Uwe Broulik",
                "Name[ru]": "Kai Uwe Broulik",
                "Name[sa]": "कै उवे ब्रौलिक्",
                "Name[sk]": "Kai Uwe Broulik",
                "Name[sl]": "Kai Uwe Broulik",
                "Name[sv]": "Kai Uwe Broulik",
                "Name[ta]": "காய் ஊவே புரோலிக்",
                "Name[tr]": "Kai Uwe Broulik",
                "Name[uk]": "Kai Uwe Broulik",
                "Name[vi]": "Kai Uwe Broulik",
                "Name[x-test]": "xxKai Uwe Broulikxx",
                "Name[zh_CN]": "Kai Uwe Broulik",
                "Name[zh_TW]": "Kai Uwe Broulik"
            }
        ],
        "BugReportUrl": "https://bugs.kde.org/enter_bug.cgi?product=plasmashell&component=System%20Monitor",
        "Category": "System Information",
        "Description": "System monitor Widget that shows the total CPU usage",
        "Description[ar]": "أداة مراقبة النظام التي تعرض مجموع استخدام المعالج",
        "Description[ast]": "Un widget del supervisor del sistema qu'amuesa l'usu total de la CPU",
        "Description[az]": "Sistem monitoru vidjeti ümumi CPU istifadəsini göstərir",
        "Description[be]": "Віджэт сістэмнага назіральніка, які паказвае агульнае выкарыстанне працэсара",
        "Description[bg]": "Уиджет за системен монитор, което показва общото използване на процесора",
        "Description[ca@valencia]": "Giny del monitor del sistema que mostra l'ús total de la CPU",
        "Description[ca]": "Giny del monitor del sistema que mostra l'ús total de la CPU",
        "Description[cs]": "Widget monitoru systému, zobrazující celkové využití CPU",
        "Description[da]": "Systemovervågning-widget som viser den samlede CPU-brug",
        "Description[de]": "Systemmonitor-Miniprogramm, das die Auslastung des gesamten Prozessors anzeigt",
        "Description[en_GB]": "System monitor Widget that shows the total CPU usage",
        "Description[eo]": "Sistema monitoro Widget kiu montras la totalan CPU-uzadon",
        "Description[es]": "Elemento gráfico del monitor del sistema que muestra el uso total de CPU",
        "Description[et]": "Süsteemi jälgija vidin, mis näitab protsessori kogukasutust",
        "Description[eu]": "PUZ erabileraren guztizkoa erakusten duen sistema gainbegiratzeko trepeta",
        "Description[fi]": "Suorittimen kokonaiskäytön näyttävä järjestelmänvalvontasovelma",
        "Description[fr]": "Composant graphique de surveillance du système, affichant l'utilisation globale du processeur.",
        "Description[gl]": "Trebello de vixilancia do sistema que mostra o uso total do procesador.",
        "Description[he]": "יישומון צג מערכת שמציג את ניצולת המעבד הכללית",
        "Description[hi]": "तंत्र परिवीक्षक विजेट जो कुल सीपीयू उपयोग दिखाता है",
        "Description[hu]": "Rendszermonitor elem, amely a teljes processzorhasználatot mutatja",
        "Description[ia]": "Widget de supervision de systema que monstra le uso total de CPU",
        "Description[id]": "Widget pemantau sistem yang menampilkan penggunaan total CPU",
        "Description[is]": "Kerfisvöktunargræja sem sýnir heildarnotkun örgjörva",
        "Description[it]": "Oggetto di monitoraggio del sistema che mostra l'utilizzo totale del processore",
        "Description[ja]": "CPU 全体の使用率を表示するウィジェット",
        "Description[ka]": "სისტემური მონიტორის ვიჯეტი, რომელიც CPU-ის ჯამურ დატვირთვას აჩვენებს",
        "Description[ko]": "총 CPU 사용량을 표시하는 시스템 모니터 위젯",
        "Description[lt]": "Sistemos prižiūryklės valdiklis, kuris rodo bendrą procesoriaus naudojimą",
        "Description[nl]": "Systeemmonitorwidget die het totale gebruik toont de CPU toont",
        "Description[nn]": "System­overvaking som viser total prosessorlast",
        "Description[pa]": "ਕੁੱਲ CPU ਵਰਤੋਂ ਵਿਖਾਉਣ ਵਾਲਾ ਸਿਸਟਮ ਮਾਨੀਟਰ ਵਿਜੈੱਟ",
        "Description[pl]": "Element interfejsu, który pokazuje całkowite wykorzystanie procesora",
        "Description[pt]": "Elemento de monitorização do sistema que mostra a carga total do CPU",
        "Description[pt_BR]": "Widget monitor do sistema que mostra o uso total da CPU",
        "Description[ro]": "Control grafic de monitorizare a sistemului ce arată utilizarea totală a procesorului",
        "Description[ru]": "Мониторинг общей загрузки процессора",
        "Description[sa]": "सङ्गणकतन्त्रस्य निरीक्षकस्य विजेट् यत् कुल CPU उपयोगं दर्शयति",
        "Description[sk]": "Miniaplikácia monitorovania systému, ktorá zobrazuje celkové využitie CPU",
        "Description[sl]": "Gradnik sistemskega monitorja, ki prikazuje celotno rabo CPE",
        "Description[sv]": "Grafisk systemövervakningskomponent som visar total processoranvändning",
        "Description[ta]": "மொத்த CPU பயன்பாட்டைக் காட்டும் பிளாஸ்மாய்ட்",
        "Description[tr]": "Toplam CPU kullanımını gösteren sistem monitörü araç takımı",
        "Description[uk]": "Віджет нагляду за системою, який показує загальне використання процесора",
        "Description[vi]": "Phụ kiện giám sát hệ thống cho biết tổng lượng dùng CPU",
        "Description[x-test]": "xxSystem monitor Widget that shows the total CPU usagexx",
        "Description[zh_CN]": "显示总 CPU 使用率的系统监视挂件",
        "Description[zh_TW]": "顯示總 CPU 用量的系統監控元件",
        "EnabledByDefault": true,
        "FormFactors": [
            "desktop"
        ],
        "Icon": "cpu",
        "Id": "org.kde.plasma.systemmonitor.cpu",
        "License": "GPL-2.0+",
        "Name": "Total CPU Use",
        "Name[ar]": "مجموع استخدام المعالج",
        "Name[az]": "Ümumi MP istifadəsi",
        "Name[be]": "Агульнае выкарыстанне працэсара",
        "Name[bg]": "Общо използване на процесора",
        "Name[ca@valencia]": "Ús total de CPU",
        "Name[ca]": "Ús total de CPU",
        "Name[cs]": "Celkové použití CPU",
        "Name[da]": "Samlet CPU-brug",
        "Name[de]": "Gesamt-CPU-Auslastung",
        "Name[en_GB]": "Total CPU Use",
        "Name[eo]": "Suma Uzo de CPU",
        "Name[es]": "Uso total de CPU",
        "Name[et]": "Protsessori kogukasutus",
        "Name[eu]": "PUZ erabileraren guztizkoa",
        "Name[fi]": "Suorittimen kokonaiskäyttö",
        "Name[fr]": "Utilisation globale du processeur",
        "Name[gl]": "Uso de procesador total",
        "Name[he]": "ניצולת מעבד כוללת",
        "Name[hi]": "कुल सीपीयू उपयोग",
        "Name[hu]": "Teljes processzorhasználat",
        "Name[ia]": "Uso total de CPU",
        "Name[id]": "Total Penggunaan CPU",
        "Name[is]": "Heildarnotkun örgjörva",
        "Name[it]": "Utilizzo totale CPU",
        "Name[ja]": "全体の CPU 使用率",
        "Name[ka]": "CPU-ის ჯამური დატვირთვა",
        "Name[ko]": "총 CPU 사용량",
        "Name[lt]": "Bendras procesoriaus naudojimas",
        "Name[ml]": "ആകെ സിപിയു ഉപയോഗം",
        "Name[nl]": "Totaal CPU-gebruik",
        "Name[nn]": "Total prosessorlast",
        "Name[pa]": "ਕੁੱਲ CPU ਵਰਤੋ",
        "Name[pl]": "Całkowite użycie procesora",
        "Name[pt]": "Carga Total do CPU",
        "Name[pt_BR]": "Uso total da CPU",
        "Name[ro]": "Utilizare totală procesor",
        "Name[ru]": "Общая загрузка ЦП",
        "Name[sa]": "कुल CPU उपयोगः",
        "Name[sk]": "Celkové využitie CPU",
        "Name[sl]": "Celotna raba CPE",
        "Name[sv]": "Total processoranvändning",
        "Name[ta]": "மொத்த CPU பயன்பாட்டு",
        "Name[tr]": "Toplam CPU Kullanımı",
        "Name[uk]": "Загальне використання процесора",
        "Name[vi]": "Tổng lượng dùng CPU",
        "Name[x-test]": "xxTotal CPU Usexx",
        "Name[zh_CN]": "总 CPU 使用情况",
        "Name[zh_TW]": "總 CPU 用量",
        "Website": "https://www.kde.org/plasma-desktop"
    },
    "X-Plasma-API-Minimum-Version": "6.0",
    "X-Plasma-Provides": [
        "org.kde.plasma.systemmonitor"
    ],
    "X-Plasma-RootPath": "org.kde.plasma.systemmonitor"
}
